{
    "m_SGVersion": 3,
    "m_Type": "UnityEditor.ShaderGraph.GraphData",
    "m_ObjectId": "882a5a57a09d44f2a2662b3cec3d229f",
    "m_Properties": [
        {
            "m_Id": "55b2805dc51f462da92cad6d54dffc1c"
        },
        {
            "m_Id": "5f81ce0174b24c348c0b3bf09248aca8"
        },
        {
            "m_Id": "9552d55c18a84bde8647c586d5f46bb8"
        },
        {
            "m_Id": "88ef51a0953949518490b498b645a62a"
        }
    ],
    "m_Keywords": [],
    "m_Dropdowns": [],
    "m_CategoryData": [
        {
            "m_Id": "480f3ec0d67649aa809573a2d7a6e515"
        }
    ],
    "m_Nodes": [
        {
            "m_Id": "2a871ae8498f4ec396255f81364acb0b"
        },
        {
            "m_Id": "162a1636d2674f4eb93fcb58bed4049b"
        },
        {
            "m_Id": "02ec8dd093e641df9088d1de88bb8aac"
        },
        {
            "m_Id": "926701d88bba4ef2b9f3be7fce2d04d7"
        },
        {
            "m_Id": "f0bed06df9dd4eb8af42bafce1eb45ad"
        },
        {
            "m_Id": "abf36ef68135407490c9605657f5d700"
        },
        {
            "m_Id": "2513456e9bbf4936acdd25970eeac3f5"
        },
        {
            "m_Id": "c86a65fd7d66450fa5c30b1b728823f0"
        },
        {
            "m_Id": "fdcfda6f49f94effb1a8509d93f408e9"
        },
        {
            "m_Id": "357e858c592f49c187f52da9525d010f"
        },
        {
            "m_Id": "87b8f5dca1ec46398135d5218f1f88b7"
        },
        {
            "m_Id": "078ce02dc23a4ca3806929f9b70ecc8d"
        },
        {
            "m_Id": "ef4f96280b3a4f6fb23b99c815584b16"
        },
        {
            "m_Id": "38be6eb8d7684e498a6ab7e9b67ab393"
        },
        {
            "m_Id": "17499a510db14e9c889ade75f7421e24"
        },
        {
            "m_Id": "12ca5e2e3e49491dba31ff78a6267a49"
        },
        {
            "m_Id": "0333579a61ea49c2933279bc21f4a3ad"
        }
    ],
    "m_GroupDatas": [],
    "m_StickyNoteDatas": [],
    "m_Edges": [
        {
            "m_OutputSlot": {
                "m_Node": {
                    "m_Id": "02ec8dd093e641df9088d1de88bb8aac"
                },
                "m_SlotId": 2
            },
            "m_InputSlot": {
                "m_Node": {
                    "m_Id": "926701d88bba4ef2b9f3be7fce2d04d7"
                },
                "m_SlotId": 1
            }
        },
        {
            "m_OutputSlot": {
                "m_Node": {
                    "m_Id": "0333579a61ea49c2933279bc21f4a3ad"
                },
                "m_SlotId": 0
            },
            "m_InputSlot": {
                "m_Node": {
                    "m_Id": "2513456e9bbf4936acdd25970eeac3f5"
                },
                "m_SlotId": 2
            }
        },
        {
            "m_OutputSlot": {
                "m_Node": {
                    "m_Id": "078ce02dc23a4ca3806929f9b70ecc8d"
                },
                "m_SlotId": 4
            },
            "m_InputSlot": {
                "m_Node": {
                    "m_Id": "c86a65fd7d66450fa5c30b1b728823f0"
                },
                "m_SlotId": 0
            }
        },
        {
            "m_OutputSlot": {
                "m_Node": {
                    "m_Id": "12ca5e2e3e49491dba31ff78a6267a49"
                },
                "m_SlotId": 0
            },
            "m_InputSlot": {
                "m_Node": {
                    "m_Id": "17499a510db14e9c889ade75f7421e24"
                },
                "m_SlotId": 2
            }
        },
        {
            "m_OutputSlot": {
                "m_Node": {
                    "m_Id": "162a1636d2674f4eb93fcb58bed4049b"
                },
                "m_SlotId": 0
            },
            "m_InputSlot": {
                "m_Node": {
                    "m_Id": "02ec8dd093e641df9088d1de88bb8aac"
                },
                "m_SlotId": 1
            }
        },
        {
            "m_OutputSlot": {
                "m_Node": {
                    "m_Id": "17499a510db14e9c889ade75f7421e24"
                },
                "m_SlotId": 3
            },
            "m_InputSlot": {
                "m_Node": {
                    "m_Id": "078ce02dc23a4ca3806929f9b70ecc8d"
                },
                "m_SlotId": 0
            }
        },
        {
            "m_OutputSlot": {
                "m_Node": {
                    "m_Id": "17499a510db14e9c889ade75f7421e24"
                },
                "m_SlotId": 3
            },
            "m_InputSlot": {
                "m_Node": {
                    "m_Id": "87b8f5dca1ec46398135d5218f1f88b7"
                },
                "m_SlotId": 954003569
            }
        },
        {
            "m_OutputSlot": {
                "m_Node": {
                    "m_Id": "17499a510db14e9c889ade75f7421e24"
                },
                "m_SlotId": 3
            },
            "m_InputSlot": {
                "m_Node": {
                    "m_Id": "abf36ef68135407490c9605657f5d700"
                },
                "m_SlotId": 0
            }
        },
        {
            "m_OutputSlot": {
                "m_Node": {
                    "m_Id": "17499a510db14e9c889ade75f7421e24"
                },
                "m_SlotId": 3
            },
            "m_InputSlot": {
                "m_Node": {
                    "m_Id": "f0bed06df9dd4eb8af42bafce1eb45ad"
                },
                "m_SlotId": 0
            }
        },
        {
            "m_OutputSlot": {
                "m_Node": {
                    "m_Id": "2513456e9bbf4936acdd25970eeac3f5"
                },
                "m_SlotId": 3
            },
            "m_InputSlot": {
                "m_Node": {
                    "m_Id": "f0bed06df9dd4eb8af42bafce1eb45ad"
                },
                "m_SlotId": 1
            }
        },
        {
            "m_OutputSlot": {
                "m_Node": {
                    "m_Id": "2513456e9bbf4936acdd25970eeac3f5"
                },
                "m_SlotId": 3
            },
            "m_InputSlot": {
                "m_Node": {
                    "m_Id": "f0bed06df9dd4eb8af42bafce1eb45ad"
                },
                "m_SlotId": 2
            }
        },
        {
            "m_OutputSlot": {
                "m_Node": {
                    "m_Id": "357e858c592f49c187f52da9525d010f"
                },
                "m_SlotId": 0
            },
            "m_InputSlot": {
                "m_Node": {
                    "m_Id": "17499a510db14e9c889ade75f7421e24"
                },
                "m_SlotId": 0
            }
        },
        {
            "m_OutputSlot": {
                "m_Node": {
                    "m_Id": "38be6eb8d7684e498a6ab7e9b67ab393"
                },
                "m_SlotId": 0
            },
            "m_InputSlot": {
                "m_Node": {
                    "m_Id": "926701d88bba4ef2b9f3be7fce2d04d7"
                },
                "m_SlotId": 0
            }
        },
        {
            "m_OutputSlot": {
                "m_Node": {
                    "m_Id": "87b8f5dca1ec46398135d5218f1f88b7"
                },
                "m_SlotId": 0
            },
            "m_InputSlot": {
                "m_Node": {
                    "m_Id": "078ce02dc23a4ca3806929f9b70ecc8d"
                },
                "m_SlotId": 1
            }
        },
        {
            "m_OutputSlot": {
                "m_Node": {
                    "m_Id": "926701d88bba4ef2b9f3be7fce2d04d7"
                },
                "m_SlotId": 2
            },
            "m_InputSlot": {
                "m_Node": {
                    "m_Id": "2513456e9bbf4936acdd25970eeac3f5"
                },
                "m_SlotId": 1
            }
        },
        {
            "m_OutputSlot": {
                "m_Node": {
                    "m_Id": "abf36ef68135407490c9605657f5d700"
                },
                "m_SlotId": 4
            },
            "m_InputSlot": {
                "m_Node": {
                    "m_Id": "2513456e9bbf4936acdd25970eeac3f5"
                },
                "m_SlotId": 0
            }
        },
        {
            "m_OutputSlot": {
                "m_Node": {
                    "m_Id": "c86a65fd7d66450fa5c30b1b728823f0"
                },
                "m_SlotId": 2
            },
            "m_InputSlot": {
                "m_Node": {
                    "m_Id": "fdcfda6f49f94effb1a8509d93f408e9"
                },
                "m_SlotId": 0
            }
        },
        {
            "m_OutputSlot": {
                "m_Node": {
                    "m_Id": "ef4f96280b3a4f6fb23b99c815584b16"
                },
                "m_SlotId": 0
            },
            "m_InputSlot": {
                "m_Node": {
                    "m_Id": "02ec8dd093e641df9088d1de88bb8aac"
                },
                "m_SlotId": 0
            }
        },
        {
            "m_OutputSlot": {
                "m_Node": {
                    "m_Id": "f0bed06df9dd4eb8af42bafce1eb45ad"
                },
                "m_SlotId": 3
            },
            "m_InputSlot": {
                "m_Node": {
                    "m_Id": "c86a65fd7d66450fa5c30b1b728823f0"
                },
                "m_SlotId": 1
            }
        },
        {
            "m_OutputSlot": {
                "m_Node": {
                    "m_Id": "fdcfda6f49f94effb1a8509d93f408e9"
                },
                "m_SlotId": 4
            },
            "m_InputSlot": {
                "m_Node": {
                    "m_Id": "2a871ae8498f4ec396255f81364acb0b"
                },
                "m_SlotId": 1
            }
        }
    ],
    "m_VertexContext": {
        "m_Position": {
            "x": 0.0,
            "y": 0.0
        },
        "m_Blocks": []
    },
    "m_FragmentContext": {
        "m_Position": {
            "x": 0.0,
            "y": 0.0
        },
        "m_Blocks": []
    },
    "m_PreviewData": {
        "serializedMesh": {
            "m_SerializedMesh": "{\"mesh\":{\"instanceID\":0}}",
            "m_Guid": ""
        },
        "preventRotation": false
    },
    "m_Path": "Sub Graphs",
    "m_GraphPrecision": 1,
    "m_PreviewMode": 2,
    "m_OutputNode": {
        "m_Id": "2a871ae8498f4ec396255f81364acb0b"
    },
    "m_ActiveTargets": []
}

{
    "m_SGVersion": 0,
    "m_Type": "UnityEditor.ShaderGraph.UVMaterialSlot",
    "m_ObjectId": "015dc42ba8be4591a02151fe1669927f",
    "m_Id": 0,
    "m_DisplayName": "UV",
    "m_SlotType": 0,
    "m_Hidden": false,
    "m_ShaderOutputName": "UV",
    "m_StageCapability": 3,
    "m_Value": {
        "x": 0.0,
        "y": 0.0
    },
    "m_DefaultValue": {
        "x": 0.0,
        "y": 0.0
    },
    "m_Labels": [],
    "m_Channel": 0
}

{
    "m_SGVersion": 0,
    "m_Type": "UnityEditor.ShaderGraph.AddNode",
    "m_ObjectId": "02ec8dd093e641df9088d1de88bb8aac",
    "m_Group": {
        "m_Id": ""
    },
    "m_Name": "Add",
    "m_DrawState": {
        "m_Expanded": true,
        "m_Position": {
            "serializedVersion": "2",
            "x": -1194.666748046875,
            "y": 227.0001220703125,
            "width": 209.3333740234375,
            "height": 304.0001220703125
        }
    },
    "m_Slots": [
        {
            "m_Id": "21ff30de41c34ea79845b772c1f20c63"
        },
        {
            "m_Id": "0890bd886add4e82818c33c3bbe4a553"
        },
        {
            "m_Id": "3390dcfd0f7b4415b0ee58d922c6e830"
        }
    ],
    "synonyms": [
        "addition",
        "sum",
        "plus"
    ],
    "m_Precision": 0,
    "m_PreviewExpanded": true,
    "m_DismissedVersion": 0,
    "m_PreviewMode": 0,
    "m_CustomColors": {
        "m_SerializableColors": []
    }
}

{
    "m_SGVersion": 0,
    "m_Type": "UnityEditor.ShaderGraph.PropertyNode",
    "m_ObjectId": "0333579a61ea49c2933279bc21f4a3ad",
    "m_Group": {
        "m_Id": ""
    },
    "m_Name": "Property",
    "m_DrawState": {
        "m_Expanded": true,
        "m_Position": {
            "serializedVersion": "2",
            "x": -26.8179931640625,
            "y": 420.3736267089844,
            "width": 0.0,
            "height": 0.0
        }
    },
    "m_Slots": [
        {
            "m_Id": "9d648f0ac3fc439781344dace2b6e102"
        }
    ],
    "synonyms": [],
    "m_Precision": 0,
    "m_PreviewExpanded": true,
    "m_DismissedVersion": 0,
    "m_PreviewMode": 0,
    "m_CustomColors": {
        "m_SerializableColors": []
    },
    "m_Property": {
        "m_Id": "88ef51a0953949518490b498b645a62a"
    }
}

{
    "m_SGVersion": 0,
    "m_Type": "UnityEditor.ShaderGraph.Vector2MaterialSlot",
    "m_ObjectId": "04a61b71d69b4df78734e3748c8eca55",
    "m_Id": 3,
    "m_DisplayName": "Out",
    "m_SlotType": 1,
    "m_Hidden": false,
    "m_ShaderOutputName": "Out",
    "m_StageCapability": 3,
    "m_Value": {
        "x": 0.0,
        "y": 0.0
    },
    "m_DefaultValue": {
        "x": 0.0,
        "y": 0.0
    },
    "m_Labels": []
}

{
    "m_SGVersion": 0,
    "m_Type": "UnityEditor.ShaderGraph.PolarCoordinatesNode",
    "m_ObjectId": "078ce02dc23a4ca3806929f9b70ecc8d",
    "m_Group": {
        "m_Id": ""
    },
    "m_Name": "Polar Coordinates",
    "m_DrawState": {
        "m_Expanded": true,
        "m_Position": {
            "serializedVersion": "2",
            "x": 279.9998474121094,
            "y": -382.9998779296875,
            "width": 209.33343505859376,
            "height": 352.0
        }
    },
    "m_Slots": [
        {
            "m_Id": "d851458d9c3b4fa09b6a5a9787871913"
        },
        {
            "m_Id": "fe539853ee2e462eaee6a5421fc83c2f"
        },
        {
            "m_Id": "9bb73ef8d1c5412b97ce04af3d7ddbb8"
        },
        {
            "m_Id": "d948d2ec588249bab8db7a15e9ad9e73"
        },
        {
            "m_Id": "726d3d6224454808865d9e5100a289f6"
        }
    ],
    "synonyms": [],
    "m_Precision": 0,
    "m_PreviewExpanded": true,
    "m_DismissedVersion": 0,
    "m_PreviewMode": 0,
    "m_CustomColors": {
        "m_SerializableColors": []
    }
}

{
    "m_SGVersion": 0,
    "m_Type": "UnityEditor.ShaderGraph.DynamicVectorMaterialSlot",
    "m_ObjectId": "0890bd886add4e82818c33c3bbe4a553",
    "m_Id": 1,
    "m_DisplayName": "B",
    "m_SlotType": 0,
    "m_Hidden": false,
    "m_ShaderOutputName": "B",
    "m_StageCapability": 3,
    "m_Value": {
        "x": 0.0,
        "y": 0.0,
        "z": 0.0,
        "w": 0.0
    },
    "m_DefaultValue": {
        "x": 0.0,
        "y": 0.0,
        "z": 0.0,
        "w": 0.0
    }
}

{
    "m_SGVersion": 0,
    "m_Type": "UnityEditor.ShaderGraph.PropertyNode",
    "m_ObjectId": "12ca5e2e3e49491dba31ff78a6267a49",
    "m_Group": {
        "m_Id": ""
    },
    "m_Name": "Property",
    "m_DrawState": {
        "m_Expanded": true,
        "m_Position": {
            "serializedVersion": "2",
            "x": -1023.9999389648438,
            "y": -344.6666564941406,
            "width": 108.0,
            "height": 36.000030517578128
        }
    },
    "m_Slots": [
        {
            "m_Id": "6e77af7b1be248a6b541a2691f27340b"
        }
    ],
    "synonyms": [],
    "m_Precision": 0,
    "m_PreviewExpanded": true,
    "m_DismissedVersion": 0,
    "m_PreviewMode": 0,
    "m_CustomColors": {
        "m_SerializableColors": []
    },
    "m_Property": {
        "m_Id": "9552d55c18a84bde8647c586d5f46bb8"
    }
}

{
    "m_SGVersion": 0,
    "m_Type": "UnityEditor.ShaderGraph.TimeNode",
    "m_ObjectId": "162a1636d2674f4eb93fcb58bed4049b",
    "m_Group": {
        "m_Id": ""
    },
    "m_Name": "Time",
    "m_DrawState": {
        "m_Expanded": true,
        "m_Position": {
            "serializedVersion": "2",
            "x": -1826.666748046875,
            "y": 509.666748046875,
            "width": 125.33349609375,
            "height": 174.666748046875
        }
    },
    "m_Slots": [
        {
            "m_Id": "1c018d1ce71c4a4289191c7c9cf89ef2"
        },
        {
            "m_Id": "6feb9f333f284806af20e86e884363ba"
        },
        {
            "m_Id": "9666c52e6cab41e49253654793f7f1b5"
        },
        {
            "m_Id": "2e33d054c91a4f569983f8bef811385e"
        },
        {
            "m_Id": "1f3c2785534548c48d96767040a23fc4"
        }
    ],
    "synonyms": [],
    "m_Precision": 0,
    "m_PreviewExpanded": true,
    "m_DismissedVersion": 0,
    "m_PreviewMode": 0,
    "m_CustomColors": {
        "m_SerializableColors": []
    }
}

{
    "m_SGVersion": 0,
    "m_Type": "UnityEditor.ShaderGraph.RotateNode",
    "m_ObjectId": "17499a510db14e9c889ade75f7421e24",
    "m_Group": {
        "m_Id": ""
    },
    "m_Name": "Rotate",
    "m_DrawState": {
        "m_Expanded": true,
        "m_Position": {
            "serializedVersion": "2",
            "x": -843.3333740234375,
            "y": -801.9999389648438,
            "width": 209.33331298828126,
            "height": 363.99993896484377
        }
    },
    "m_Slots": [
        {
            "m_Id": "015dc42ba8be4591a02151fe1669927f"
        },
        {
            "m_Id": "509eebeb9e764e9ab522cbaf680176a4"
        },
        {
            "m_Id": "f86511a1dff84880ba40fe5c3f4bd9ef"
        },
        {
            "m_Id": "04a61b71d69b4df78734e3748c8eca55"
        }
    ],
    "synonyms": [],
    "m_Precision": 0,
    "m_PreviewExpanded": true,
    "m_DismissedVersion": 0,
    "m_PreviewMode": 0,
    "m_CustomColors": {
        "m_SerializableColors": []
    },
    "m_Unit": 1
}

{
    "m_SGVersion": 0,
    "m_Type": "UnityEditor.ShaderGraph.Vector1MaterialSlot",
    "m_ObjectId": "1c018d1ce71c4a4289191c7c9cf89ef2",
    "m_Id": 0,
    "m_DisplayName": "Time",
    "m_SlotType": 1,
    "m_Hidden": false,
    "m_ShaderOutputName": "Time",
    "m_StageCapability": 3,
    "m_Value": 0.0,
    "m_DefaultValue": 0.0,
    "m_Labels": []
}

{
    "m_SGVersion": 0,
    "m_Type": "UnityEditor.ShaderGraph.Vector1MaterialSlot",
    "m_ObjectId": "1f3c2785534548c48d96767040a23fc4",
    "m_Id": 4,
    "m_DisplayName": "Smooth Delta",
    "m_SlotType": 1,
    "m_Hidden": false,
    "m_ShaderOutputName": "Smooth Delta",
    "m_StageCapability": 3,
    "m_Value": 0.0,
    "m_DefaultValue": 0.0,
    "m_Labels": []
}

{
    "m_SGVersion": 0,
    "m_Type": "UnityEditor.ShaderGraph.DynamicVectorMaterialSlot",
    "m_ObjectId": "21ff30de41c34ea79845b772c1f20c63",
    "m_Id": 0,
    "m_DisplayName": "A",
    "m_SlotType": 0,
    "m_Hidden": false,
    "m_ShaderOutputName": "A",
    "m_StageCapability": 3,
    "m_Value": {
        "x": 0.0,
        "y": 0.0,
        "z": 0.0,
        "w": 0.0
    },
    "m_DefaultValue": {
        "x": 0.0,
        "y": 0.0,
        "z": 0.0,
        "w": 0.0
    }
}

{
    "m_SGVersion": 1,
    "m_Type": "UnityEditor.ShaderGraph.VoronoiNode",
    "m_ObjectId": "2513456e9bbf4936acdd25970eeac3f5",
    "m_Group": {
        "m_Id": ""
    },
    "m_Name": "Voronoi",
    "m_DrawState": {
        "m_Expanded": true,
        "m_Position": {
            "serializedVersion": "2",
            "x": 279.99993896484377,
            "y": 227.0,
            "width": 209.333251953125,
            "height": 364.0
        }
    },
    "m_Slots": [
        {
            "m_Id": "3aaa5fe1683347a280d28b1d56132823"
        },
        {
            "m_Id": "7b242ccac41c4251b0d9a1c98078ffd0"
        },
        {
            "m_Id": "c7ca8b9d4d174c3e870f8cb8d31ac66b"
        },
        {
            "m_Id": "de0daf48f10b4e83b0ba7eeef5fb5ea2"
        },
        {
            "m_Id": "2dcc3efcdc91415ea3cf5a218d4aea6c"
        }
    ],
    "synonyms": [
        "worley noise"
    ],
    "m_Precision": 0,
    "m_PreviewExpanded": true,
    "m_DismissedVersion": 0,
    "m_PreviewMode": 0,
    "m_CustomColors": {
        "m_SerializableColors": []
    },
    "m_HashType": 0
}

{
    "m_SGVersion": 0,
    "m_Type": "UnityEditor.ShaderGraph.SubGraphOutputNode",
    "m_ObjectId": "2a871ae8498f4ec396255f81364acb0b",
    "m_Group": {
        "m_Id": ""
    },
    "m_Name": "Output",
    "m_DrawState": {
        "m_Expanded": true,
        "m_Position": {
            "serializedVersion": "2",
            "x": 2542.666748046875,
            "y": -31.333383560180665,
            "width": 121.999755859375,
            "height": 78.66664123535156
        }
    },
    "m_Slots": [
        {
            "m_Id": "bb256feca24f4fcc9f88ff06cb384aef"
        }
    ],
    "synonyms": [],
    "m_Precision": 0,
    "m_PreviewExpanded": true,
    "m_DismissedVersion": 0,
    "m_PreviewMode": 0,
    "m_CustomColors": {
        "m_SerializableColors": []
    },
    "IsFirstSlotValid": true
}

{
    "m_SGVersion": 0,
    "m_Type": "UnityEditor.ShaderGraph.Vector1MaterialSlot",
    "m_ObjectId": "2dcc3efcdc91415ea3cf5a218d4aea6c",
    "m_Id": 4,
    "m_DisplayName": "Cells",
    "m_SlotType": 1,
    "m_Hidden": false,
    "m_ShaderOutputName": "Cells",
    "m_StageCapability": 3,
    "m_Value": 0.0,
    "m_DefaultValue": 0.0,
    "m_Labels": []
}

{
    "m_SGVersion": 0,
    "m_Type": "UnityEditor.ShaderGraph.Vector1MaterialSlot",
    "m_ObjectId": "2e33d054c91a4f569983f8bef811385e",
    "m_Id": 3,
    "m_DisplayName": "Delta Time",
    "m_SlotType": 1,
    "m_Hidden": false,
    "m_ShaderOutputName": "Delta Time",
    "m_StageCapability": 3,
    "m_Value": 0.0,
    "m_DefaultValue": 0.0,
    "m_Labels": []
}

{
    "m_SGVersion": 0,
    "m_Type": "UnityEditor.ShaderGraph.Vector1MaterialSlot",
    "m_ObjectId": "30365234f9374084bed68ac01e67801e",
    "m_Id": 3,
    "m_DisplayName": "Length Scale",
    "m_SlotType": 0,
    "m_Hidden": false,
    "m_ShaderOutputName": "LengthScale",
    "m_StageCapability": 3,
    "m_Value": 0.0,
    "m_DefaultValue": 1.0,
    "m_Labels": []
}

{
    "m_SGVersion": 0,
    "m_Type": "UnityEditor.ShaderGraph.DynamicVectorMaterialSlot",
    "m_ObjectId": "3390dcfd0f7b4415b0ee58d922c6e830",
    "m_Id": 2,
    "m_DisplayName": "Out",
    "m_SlotType": 1,
    "m_Hidden": false,
    "m_ShaderOutputName": "Out",
    "m_StageCapability": 3,
    "m_Value": {
        "x": 0.0,
        "y": 0.0,
        "z": 0.0,
        "w": 0.0
    },
    "m_DefaultValue": {
        "x": 0.0,
        "y": 0.0,
        "z": 0.0,
        "w": 0.0
    }
}

{
    "m_SGVersion": 1,
    "m_Type": "UnityEditor.ShaderGraph.PositionNode",
    "m_ObjectId": "357e858c592f49c187f52da9525d010f",
    "m_Group": {
        "m_Id": ""
    },
    "m_Name": "Position",
    "m_DrawState": {
        "m_Expanded": true,
        "m_Position": {
            "serializedVersion": "2",
            "x": -1233.3333740234375,
            "y": -801.9999389648438,
            "width": 209.3333740234375,
            "height": 318.6665954589844
        }
    },
    "m_Slots": [
        {
            "m_Id": "8e6dd9dbbf80419196245d8fb71c66df"
        }
    ],
    "synonyms": [
        "location"
    ],
    "m_Precision": 1,
    "m_PreviewExpanded": true,
    "m_DismissedVersion": 0,
    "m_PreviewMode": 2,
    "m_CustomColors": {
        "m_SerializableColors": []
    },
    "m_Space": 0,
    "m_PositionSource": 0
}

{
    "m_SGVersion": 0,
    "m_Type": "UnityEditor.ShaderGraph.PropertyNode",
    "m_ObjectId": "38be6eb8d7684e498a6ab7e9b67ab393",
    "m_Group": {
        "m_Id": ""
    },
    "m_Name": "Property",
    "m_DrawState": {
        "m_Expanded": true,
        "m_Position": {
            "serializedVersion": "2",
            "x": -1094.0001220703125,
            "y": 128.66671752929688,
            "width": 108.666748046875,
            "height": 35.99998474121094
        }
    },
    "m_Slots": [
        {
            "m_Id": "bc0ce4be826743d9aed287c6ec762b3c"
        }
    ],
    "synonyms": [],
    "m_Precision": 0,
    "m_PreviewExpanded": true,
    "m_DismissedVersion": 0,
    "m_PreviewMode": 0,
    "m_CustomColors": {
        "m_SerializableColors": []
    },
    "m_Property": {
        "m_Id": "5f81ce0174b24c348c0b3bf09248aca8"
    }
}

{
    "m_SGVersion": 0,
    "m_Type": "UnityEditor.ShaderGraph.UVMaterialSlot",
    "m_ObjectId": "3aaa5fe1683347a280d28b1d56132823",
    "m_Id": 0,
    "m_DisplayName": "UV",
    "m_SlotType": 0,
    "m_Hidden": false,
    "m_ShaderOutputName": "UV",
    "m_StageCapability": 3,
    "m_Value": {
        "x": 0.0,
        "y": 0.0
    },
    "m_DefaultValue": {
        "x": 0.0,
        "y": 0.0
    },
    "m_Labels": [],
    "m_Channel": 0
}

{
    "m_SGVersion": 0,
    "m_Type": "UnityEditor.ShaderGraph.Vector1MaterialSlot",
    "m_ObjectId": "43ba8514e32f4ca3ab6f36c26d4ef749",
    "m_Id": 5,
    "m_DisplayName": "Fuzziness",
    "m_SlotType": 0,
    "m_Hidden": false,
    "m_ShaderOutputName": "Fuzziness",
    "m_StageCapability": 3,
    "m_Value": 0.0,
    "m_DefaultValue": 0.0,
    "m_Labels": []
}

{
    "m_SGVersion": 0,
    "m_Type": "UnityEditor.ShaderGraph.CategoryData",
    "m_ObjectId": "480f3ec0d67649aa809573a2d7a6e515",
    "m_Name": "",
    "m_ChildObjectList": [
        {
            "m_Id": "55b2805dc51f462da92cad6d54dffc1c"
        },
        {
            "m_Id": "5f81ce0174b24c348c0b3bf09248aca8"
        },
        {
            "m_Id": "9552d55c18a84bde8647c586d5f46bb8"
        },
        {
            "m_Id": "88ef51a0953949518490b498b645a62a"
        }
    ]
}

{
    "m_SGVersion": 0,
    "m_Type": "UnityEditor.ShaderGraph.Vector2MaterialSlot",
    "m_ObjectId": "48a4a1f8e78047d490dcbb25ed9af701",
    "m_Id": 1,
    "m_DisplayName": "Center",
    "m_SlotType": 0,
    "m_Hidden": false,
    "m_ShaderOutputName": "Center",
    "m_StageCapability": 3,
    "m_Value": {
        "x": 0.5,
        "y": 0.5
    },
    "m_DefaultValue": {
        "x": 0.0,
        "y": 0.0
    },
    "m_Labels": []
}

{
    "m_SGVersion": 0,
    "m_Type": "UnityEditor.ShaderGraph.DynamicValueMaterialSlot",
    "m_ObjectId": "4a02397bd7844f4c8226d2c64e2b0958",
    "m_Id": 0,
    "m_DisplayName": "A",
    "m_SlotType": 0,
    "m_Hidden": false,
    "m_ShaderOutputName": "A",
    "m_StageCapability": 3,
    "m_Value": {
        "e00": 0.0,
        "e01": 0.0,
        "e02": 0.0,
        "e03": 0.0,
        "e10": 0.0,
        "e11": 0.0,
        "e12": 0.0,
        "e13": 0.0,
        "e20": 0.0,
        "e21": 0.0,
        "e22": 0.0,
        "e23": 0.0,
        "e30": 0.0,
        "e31": 0.0,
        "e32": 0.0,
        "e33": 0.0
    },
    "m_DefaultValue": {
        "e00": 1.0,
        "e01": 0.0,
        "e02": 0.0,
        "e03": 0.0,
        "e10": 0.0,
        "e11": 1.0,
        "e12": 0.0,
        "e13": 0.0,
        "e20": 0.0,
        "e21": 0.0,
        "e22": 1.0,
        "e23": 0.0,
        "e30": 0.0,
        "e31": 0.0,
        "e32": 0.0,
        "e33": 1.0
    }
}

{
    "m_SGVersion": 0,
    "m_Type": "UnityEditor.ShaderGraph.Vector4MaterialSlot",
    "m_ObjectId": "4b9a1472963646d380ca8f893e2a2f9a",
    "m_Id": 0,
    "m_DisplayName": "number",
    "m_SlotType": 1,
    "m_Hidden": false,
    "m_ShaderOutputName": "number",
    "m_StageCapability": 2,
    "m_Value": {
        "x": 0.0,
        "y": 0.0,
        "z": 0.0,
        "w": 0.0
    },
    "m_DefaultValue": {
        "x": 0.0,
        "y": 0.0,
        "z": 0.0,
        "w": 0.0
    },
    "m_Labels": []
}

{
    "m_SGVersion": 0,
    "m_Type": "UnityEditor.ShaderGraph.Vector3MaterialSlot",
    "m_ObjectId": "5068fa0ea71b49adb6e35d57a9eeb0e5",
    "m_Id": 0,
    "m_DisplayName": "In",
    "m_SlotType": 0,
    "m_Hidden": false,
    "m_ShaderOutputName": "In",
    "m_StageCapability": 3,
    "m_Value": {
        "x": 0.0,
        "y": 0.0,
        "z": 0.0
    },
    "m_DefaultValue": {
        "x": 0.0,
        "y": 0.0,
        "z": 0.0
    },
    "m_Labels": []
}

{
    "m_SGVersion": 0,
    "m_Type": "UnityEditor.ShaderGraph.Vector2MaterialSlot",
    "m_ObjectId": "509eebeb9e764e9ab522cbaf680176a4",
    "m_Id": 1,
    "m_DisplayName": "Center",
    "m_SlotType": 0,
    "m_Hidden": false,
    "m_ShaderOutputName": "Center",
    "m_StageCapability": 3,
    "m_Value": {
        "x": 0.0,
        "y": 0.0
    },
    "m_DefaultValue": {
        "x": 0.0,
        "y": 0.0
    },
    "m_Labels": []
}

{
    "m_SGVersion": 1,
    "m_Type": "UnityEditor.ShaderGraph.Internal.Vector1ShaderProperty",
    "m_ObjectId": "55b2805dc51f462da92cad6d54dffc1c",
    "m_Guid": {
        "m_GuidSerialized": "fd0bd4e9-1662-41b5-9422-3ee8e99ba196"
    },
    "m_Name": "timeOffset",
    "m_DefaultRefNameVersion": 1,
    "m_RefNameGeneratedByDisplayName": "timeOffset",
    "m_DefaultReferenceName": "_timeOffset",
    "m_OverrideReferenceName": "",
    "m_GeneratePropertyBlock": true,
    "m_UseCustomSlotLabel": false,
    "m_CustomSlotLabel": "",
    "m_DismissedVersion": 0,
    "m_Precision": 0,
    "overrideHLSLDeclaration": false,
    "hlslDeclarationOverride": 0,
    "m_Hidden": false,
    "m_Value": 0.0,
    "m_FloatType": 0,
    "m_RangeValues": {
        "x": 0.0,
        "y": 1.0
    }
}

{
    "m_SGVersion": 1,
    "m_Type": "UnityEditor.ShaderGraph.Internal.Vector1ShaderProperty",
    "m_ObjectId": "5f81ce0174b24c348c0b3bf09248aca8",
    "m_Guid": {
        "m_GuidSerialized": "625fd6b3-74e1-4aed-bb60-32b3606840f9"
    },
    "m_Name": "speed",
    "m_DefaultRefNameVersion": 1,
    "m_RefNameGeneratedByDisplayName": "speed",
    "m_DefaultReferenceName": "_speed",
    "m_OverrideReferenceName": "",
    "m_GeneratePropertyBlock": true,
    "m_UseCustomSlotLabel": false,
    "m_CustomSlotLabel": "",
    "m_DismissedVersion": 0,
    "m_Precision": 0,
    "overrideHLSLDeclaration": false,
    "hlslDeclarationOverride": 0,
    "m_Hidden": false,
    "m_Value": 0.0,
    "m_FloatType": 0,
    "m_RangeValues": {
        "x": 0.0,
        "y": 1.0
    }
}

{
    "m_SGVersion": 0,
    "m_Type": "UnityEditor.ShaderGraph.DynamicValueMaterialSlot",
    "m_ObjectId": "624cfeee7e2d4971994568a9629712ec",
    "m_Id": 2,
    "m_DisplayName": "Out",
    "m_SlotType": 1,
    "m_Hidden": false,
    "m_ShaderOutputName": "Out",
    "m_StageCapability": 3,
    "m_Value": {
        "e00": 0.0,
        "e01": 0.0,
        "e02": 0.0,
        "e03": 0.0,
        "e10": 0.0,
        "e11": 0.0,
        "e12": 0.0,
        "e13": 0.0,
        "e20": 0.0,
        "e21": 0.0,
        "e22": 0.0,
        "e23": 0.0,
        "e30": 0.0,
        "e31": 0.0,
        "e32": 0.0,
        "e33": 0.0
    },
    "m_DefaultValue": {
        "e00": 1.0,
        "e01": 0.0,
        "e02": 0.0,
        "e03": 0.0,
        "e10": 0.0,
        "e11": 1.0,
        "e12": 0.0,
        "e13": 0.0,
        "e20": 0.0,
        "e21": 0.0,
        "e22": 1.0,
        "e23": 0.0,
        "e30": 0.0,
        "e31": 0.0,
        "e32": 0.0,
        "e33": 1.0
    }
}

{
    "m_SGVersion": 0,
    "m_Type": "UnityEditor.ShaderGraph.Vector1MaterialSlot",
    "m_ObjectId": "6e77af7b1be248a6b541a2691f27340b",
    "m_Id": 0,
    "m_DisplayName": "rotate",
    "m_SlotType": 1,
    "m_Hidden": false,
    "m_ShaderOutputName": "Out",
    "m_StageCapability": 3,
    "m_Value": 0.0,
    "m_DefaultValue": 0.0,
    "m_Labels": []
}

{
    "m_SGVersion": 0,
    "m_Type": "UnityEditor.ShaderGraph.Vector1MaterialSlot",
    "m_ObjectId": "6feb9f333f284806af20e86e884363ba",
    "m_Id": 1,
    "m_DisplayName": "Sine Time",
    "m_SlotType": 1,
    "m_Hidden": false,
    "m_ShaderOutputName": "Sine Time",
    "m_StageCapability": 3,
    "m_Value": 0.0,
    "m_DefaultValue": 0.0,
    "m_Labels": []
}

{
    "m_SGVersion": 0,
    "m_Type": "UnityEditor.ShaderGraph.Vector4MaterialSlot",
    "m_ObjectId": "71b266c094374256a1654e4da3f49886",
    "m_Id": 954003569,
    "m_DisplayName": "number",
    "m_SlotType": 0,
    "m_Hidden": false,
    "m_ShaderOutputName": "_number",
    "m_StageCapability": 2,
    "m_Value": {
        "x": 0.0,
        "y": 0.0,
        "z": 0.0,
        "w": 0.0
    },
    "m_DefaultValue": {
        "x": 0.0,
        "y": 0.0,
        "z": 0.0,
        "w": 0.0
    },
    "m_Labels": []
}

{
    "m_SGVersion": 0,
    "m_Type": "UnityEditor.ShaderGraph.Vector2MaterialSlot",
    "m_ObjectId": "726d3d6224454808865d9e5100a289f6",
    "m_Id": 4,
    "m_DisplayName": "Out",
    "m_SlotType": 1,
    "m_Hidden": false,
    "m_ShaderOutputName": "Out",
    "m_StageCapability": 3,
    "m_Value": {
        "x": 0.0,
        "y": 0.0
    },
    "m_DefaultValue": {
        "x": 0.0,
        "y": 0.0
    },
    "m_Labels": []
}

{
    "m_SGVersion": 0,
    "m_Type": "UnityEditor.ShaderGraph.DynamicValueMaterialSlot",
    "m_ObjectId": "72b47c850314475294e33dd7f2c8d357",
    "m_Id": 1,
    "m_DisplayName": "B",
    "m_SlotType": 0,
    "m_Hidden": false,
    "m_ShaderOutputName": "B",
    "m_StageCapability": 3,
    "m_Value": {
        "e00": 2.0,
        "e01": 2.0,
        "e02": 2.0,
        "e03": 2.0,
        "e10": 2.0,
        "e11": 2.0,
        "e12": 2.0,
        "e13": 2.0,
        "e20": 2.0,
        "e21": 2.0,
        "e22": 2.0,
        "e23": 2.0,
        "e30": 2.0,
        "e31": 2.0,
        "e32": 2.0,
        "e33": 2.0
    },
    "m_DefaultValue": {
        "e00": 1.0,
        "e01": 0.0,
        "e02": 0.0,
        "e03": 0.0,
        "e10": 0.0,
        "e11": 1.0,
        "e12": 0.0,
        "e13": 0.0,
        "e20": 0.0,
        "e21": 0.0,
        "e22": 1.0,
        "e23": 0.0,
        "e30": 0.0,
        "e31": 0.0,
        "e32": 0.0,
        "e33": 1.0
    }
}

{
    "m_SGVersion": 0,
    "m_Type": "UnityEditor.ShaderGraph.Vector1MaterialSlot",
    "m_ObjectId": "77d6c48ac7344a119fa7217205d4d344",
    "m_Id": 3,
    "m_DisplayName": "Out",
    "m_SlotType": 1,
    "m_Hidden": false,
    "m_ShaderOutputName": "Out",
    "m_StageCapability": 2,
    "m_Value": 0.0,
    "m_DefaultValue": 0.0,
    "m_Labels": []
}

{
    "m_SGVersion": 0,
    "m_Type": "UnityEditor.ShaderGraph.Vector1MaterialSlot",
    "m_ObjectId": "7b242ccac41c4251b0d9a1c98078ffd0",
    "m_Id": 1,
    "m_DisplayName": "AngleOffset",
    "m_SlotType": 0,
    "m_Hidden": false,
    "m_ShaderOutputName": "AngleOffset",
    "m_StageCapability": 3,
    "m_Value": 2.0,
    "m_DefaultValue": 2.0,
    "m_Labels": []
}

{
    "m_SGVersion": 0,
    "m_Type": "UnityEditor.ShaderGraph.SubGraphNode",
    "m_ObjectId": "87b8f5dca1ec46398135d5218f1f88b7",
    "m_Group": {
        "m_Id": ""
    },
    "m_Name": "DD+&-X+&-Y",
    "m_DrawState": {
        "m_Expanded": true,
        "m_Position": {
            "serializedVersion": "2",
            "x": -99.367431640625,
            "y": -662.3673095703125,
            "width": 209.3333282470703,
            "height": 280.0
        }
    },
    "m_Slots": [
        {
            "m_Id": "71b266c094374256a1654e4da3f49886"
        },
        {
            "m_Id": "4b9a1472963646d380ca8f893e2a2f9a"
        }
    ],
    "synonyms": [],
    "m_Precision": 0,
    "m_PreviewExpanded": true,
    "m_DismissedVersion": 0,
    "m_PreviewMode": 0,
    "m_CustomColors": {
        "m_SerializableColors": []
    },
    "m_SerializedSubGraph": "{\n    \"subGraph\": {\n        \"fileID\": -5475051401550479605,\n        \"guid\": \"b986ae36a2103ea4fa11efe9246de803\",\n        \"type\": 3\n    }\n}",
    "m_PropertyGuids": [
        "54e2fecf-f968-4be3-a27b-b284748c6fa3"
    ],
    "m_PropertyIds": [
        954003569
    ],
    "m_Dropdowns": [],
    "m_DropdownSelectedEntries": []
}

{
    "m_SGVersion": 1,
    "m_Type": "UnityEditor.ShaderGraph.Internal.Vector1ShaderProperty",
    "m_ObjectId": "88ef51a0953949518490b498b645a62a",
    "m_Guid": {
        "m_GuidSerialized": "69961bd1-d8dd-4121-9373-d43290d66fe2"
    },
    "m_Name": "zoom",
    "m_DefaultRefNameVersion": 1,
    "m_RefNameGeneratedByDisplayName": "zoom",
    "m_DefaultReferenceName": "_zoom",
    "m_OverrideReferenceName": "",
    "m_GeneratePropertyBlock": true,
    "m_UseCustomSlotLabel": false,
    "m_CustomSlotLabel": "",
    "m_DismissedVersion": 0,
    "m_Precision": 0,
    "overrideHLSLDeclaration": false,
    "hlslDeclarationOverride": 0,
    "m_Hidden": false,
    "m_Value": 5.0,
    "m_FloatType": 0,
    "m_RangeValues": {
        "x": 0.0,
        "y": 1.0
    }
}

{
    "m_SGVersion": 0,
    "m_Type": "UnityEditor.ShaderGraph.Vector3MaterialSlot",
    "m_ObjectId": "8e6dd9dbbf80419196245d8fb71c66df",
    "m_Id": 0,
    "m_DisplayName": "Out",
    "m_SlotType": 1,
    "m_Hidden": false,
    "m_ShaderOutputName": "Out",
    "m_StageCapability": 3,
    "m_Value": {
        "x": 0.0,
        "y": 0.0,
        "z": 0.0
    },
    "m_DefaultValue": {
        "x": 0.0,
        "y": 0.0,
        "z": 0.0
    },
    "m_Labels": []
}

{
    "m_SGVersion": 0,
    "m_Type": "UnityEditor.ShaderGraph.Vector1MaterialSlot",
    "m_ObjectId": "8f143ce461494e42b9528cef70dac785",
    "m_Id": 0,
    "m_DisplayName": "timeOffset",
    "m_SlotType": 1,
    "m_Hidden": false,
    "m_ShaderOutputName": "Out",
    "m_StageCapability": 3,
    "m_Value": 0.0,
    "m_DefaultValue": 0.0,
    "m_Labels": []
}

{
    "m_SGVersion": 0,
    "m_Type": "UnityEditor.ShaderGraph.UVMaterialSlot",
    "m_ObjectId": "91113d4e2ab345dfb7c8bd94618cd2e5",
    "m_Id": 0,
    "m_DisplayName": "UV",
    "m_SlotType": 0,
    "m_Hidden": false,
    "m_ShaderOutputName": "UV",
    "m_StageCapability": 3,
    "m_Value": {
        "x": 0.0,
        "y": 0.0
    },
    "m_DefaultValue": {
        "x": 0.0,
        "y": 0.0
    },
    "m_Labels": [],
    "m_Channel": 0
}

{
    "m_SGVersion": 0,
    "m_Type": "UnityEditor.ShaderGraph.MultiplyNode",
    "m_ObjectId": "926701d88bba4ef2b9f3be7fce2d04d7",
    "m_Group": {
        "m_Id": ""
    },
    "m_Name": "Multiply",
    "m_DrawState": {
        "m_Expanded": true,
        "m_Position": {
            "serializedVersion": "2",
            "x": -828.0000610351563,
            "y": 227.0001220703125,
            "width": 209.3333740234375,
            "height": 304.0001220703125
        }
    },
    "m_Slots": [
        {
            "m_Id": "4a02397bd7844f4c8226d2c64e2b0958"
        },
        {
            "m_Id": "e1e586be234c4c07bef1c599f951116f"
        },
        {
            "m_Id": "cf42d751226244179dd7106238d71df6"
        }
    ],
    "synonyms": [
        "multiplication",
        "times",
        "x"
    ],
    "m_Precision": 0,
    "m_PreviewExpanded": true,
    "m_DismissedVersion": 0,
    "m_PreviewMode": 0,
    "m_CustomColors": {
        "m_SerializableColors": []
    }
}

{
    "m_SGVersion": 1,
    "m_Type": "UnityEditor.ShaderGraph.Internal.Vector1ShaderProperty",
    "m_ObjectId": "9552d55c18a84bde8647c586d5f46bb8",
    "m_Guid": {
        "m_GuidSerialized": "7f3e275d-7c73-465a-b2b8-948aac778698"
    },
    "m_Name": "rotate",
    "m_DefaultRefNameVersion": 1,
    "m_RefNameGeneratedByDisplayName": "rotate",
    "m_DefaultReferenceName": "_rotate",
    "m_OverrideReferenceName": "",
    "m_GeneratePropertyBlock": true,
    "m_UseCustomSlotLabel": false,
    "m_CustomSlotLabel": "",
    "m_DismissedVersion": 0,
    "m_Precision": 0,
    "overrideHLSLDeclaration": false,
    "hlslDeclarationOverride": 0,
    "m_Hidden": false,
    "m_Value": 0.0,
    "m_FloatType": 0,
    "m_RangeValues": {
        "x": 0.0,
        "y": 1.0
    }
}

{
    "m_SGVersion": 0,
    "m_Type": "UnityEditor.ShaderGraph.Vector1MaterialSlot",
    "m_ObjectId": "9666c52e6cab41e49253654793f7f1b5",
    "m_Id": 2,
    "m_DisplayName": "Cosine Time",
    "m_SlotType": 1,
    "m_Hidden": false,
    "m_ShaderOutputName": "Cosine Time",
    "m_StageCapability": 3,
    "m_Value": 0.0,
    "m_DefaultValue": 0.0,
    "m_Labels": []
}

{
    "m_SGVersion": 0,
    "m_Type": "UnityEditor.ShaderGraph.UVMaterialSlot",
    "m_ObjectId": "96da24578b394fb281cd25b82cf1d81b",
    "m_Id": 0,
    "m_DisplayName": "UV",
    "m_SlotType": 0,
    "m_Hidden": false,
    "m_ShaderOutputName": "UV",
    "m_StageCapability": 3,
    "m_Value": {
        "x": 0.0,
        "y": 0.0
    },
    "m_DefaultValue": {
        "x": 0.0,
        "y": 0.0
    },
    "m_Labels": [],
    "m_Channel": 0
}

{
    "m_SGVersion": 0,
    "m_Type": "UnityEditor.ShaderGraph.Vector1MaterialSlot",
    "m_ObjectId": "9bb73ef8d1c5412b97ce04af3d7ddbb8",
    "m_Id": 2,
    "m_DisplayName": "Radial Scale",
    "m_SlotType": 0,
    "m_Hidden": false,
    "m_ShaderOutputName": "RadialScale",
    "m_StageCapability": 3,
    "m_Value": 0.800000011920929,
    "m_DefaultValue": 1.0,
    "m_Labels": []
}

{
    "m_SGVersion": 0,
    "m_Type": "UnityEditor.ShaderGraph.Vector1MaterialSlot",
    "m_ObjectId": "9d648f0ac3fc439781344dace2b6e102",
    "m_Id": 0,
    "m_DisplayName": "zoom",
    "m_SlotType": 1,
    "m_Hidden": false,
    "m_ShaderOutputName": "Out",
    "m_StageCapability": 3,
    "m_Value": 0.0,
    "m_DefaultValue": 0.0,
    "m_Labels": []
}

{
    "m_SGVersion": 0,
    "m_Type": "UnityEditor.ShaderGraph.Vector3MaterialSlot",
    "m_ObjectId": "a07dd990c1404ca79e36f6831f08f1b9",
    "m_Id": 4,
    "m_DisplayName": "Out",
    "m_SlotType": 1,
    "m_Hidden": false,
    "m_ShaderOutputName": "Out",
    "m_StageCapability": 3,
    "m_Value": {
        "x": 0.0,
        "y": 0.0,
        "z": 0.0
    },
    "m_DefaultValue": {
        "x": 0.0,
        "y": 0.0,
        "z": 0.0
    },
    "m_Labels": []
}

{
    "m_SGVersion": 0,
    "m_Type": "UnityEditor.ShaderGraph.Vector1MaterialSlot",
    "m_ObjectId": "a21de655e23543a0b0395b3726ceb042",
    "m_Id": 1,
    "m_DisplayName": "Width",
    "m_SlotType": 0,
    "m_Hidden": false,
    "m_ShaderOutputName": "Width",
    "m_StageCapability": 3,
    "m_Value": 0.5,
    "m_DefaultValue": 0.5,
    "m_Labels": []
}

{
    "m_SGVersion": 0,
    "m_Type": "UnityEditor.ShaderGraph.Vector1MaterialSlot",
    "m_ObjectId": "a533471f029c4cbfaa06262c90da3856",
    "m_Id": 2,
    "m_DisplayName": "Radial Scale",
    "m_SlotType": 0,
    "m_Hidden": false,
    "m_ShaderOutputName": "RadialScale",
    "m_StageCapability": 3,
    "m_Value": 1.0,
    "m_DefaultValue": 1.0,
    "m_Labels": []
}

{
    "m_SGVersion": 0,
    "m_Type": "UnityEditor.ShaderGraph.PolarCoordinatesNode",
    "m_ObjectId": "abf36ef68135407490c9605657f5d700",
    "m_Group": {
        "m_Id": ""
    },
    "m_Name": "Polar Coordinates",
    "m_DrawState": {
        "m_Expanded": true,
        "m_Position": {
            "serializedVersion": "2",
            "x": -311.3334045410156,
            "y": -223.0,
            "width": 209.3333740234375,
            "height": 352.0
        }
    },
    "m_Slots": [
        {
            "m_Id": "96da24578b394fb281cd25b82cf1d81b"
        },
        {
            "m_Id": "48a4a1f8e78047d490dcbb25ed9af701"
        },
        {
            "m_Id": "a533471f029c4cbfaa06262c90da3856"
        },
        {
            "m_Id": "30365234f9374084bed68ac01e67801e"
        },
        {
            "m_Id": "b5f201335cbc47f09352cba86d3adbe2"
        }
    ],
    "synonyms": [],
    "m_Precision": 0,
    "m_PreviewExpanded": true,
    "m_DismissedVersion": 0,
    "m_PreviewMode": 0,
    "m_CustomColors": {
        "m_SerializableColors": []
    }
}

{
    "m_SGVersion": 0,
    "m_Type": "UnityEditor.ShaderGraph.Vector2MaterialSlot",
    "m_ObjectId": "b5f201335cbc47f09352cba86d3adbe2",
    "m_Id": 4,
    "m_DisplayName": "Out",
    "m_SlotType": 1,
    "m_Hidden": false,
    "m_ShaderOutputName": "Out",
    "m_StageCapability": 3,
    "m_Value": {
        "x": 0.0,
        "y": 0.0
    },
    "m_DefaultValue": {
        "x": 0.0,
        "y": 0.0
    },
    "m_Labels": []
}

{
    "m_SGVersion": 0,
    "m_Type": "UnityEditor.ShaderGraph.ColorRGBMaterialSlot",
    "m_ObjectId": "b760a9e7683640c09e8acb3ad76c5edc",
    "m_Id": 2,
    "m_DisplayName": "To",
    "m_SlotType": 0,
    "m_Hidden": false,
    "m_ShaderOutputName": "To",
    "m_StageCapability": 3,
    "m_Value": {
        "x": 0.32549020648002627,
        "y": 0.13333334028720857,
        "z": 0.0
    },
    "m_DefaultValue": {
        "x": 0.0,
        "y": 0.0,
        "z": 0.0
    },
    "m_Labels": [],
    "m_ColorMode": 0,
    "m_DefaultColor": {
        "r": 0.0,
        "g": 0.0,
        "b": 0.0,
        "a": 0.0
    }
}

{
    "m_SGVersion": 0,
    "m_Type": "UnityEditor.ShaderGraph.Vector3MaterialSlot",
    "m_ObjectId": "bb256feca24f4fcc9f88ff06cb384aef",
    "m_Id": 1,
    "m_DisplayName": "Out_Vector3",
    "m_SlotType": 0,
    "m_Hidden": false,
    "m_ShaderOutputName": "OutVector3",
    "m_StageCapability": 2,
    "m_Value": {
        "x": 0.0,
        "y": 0.0,
        "z": 0.0
    },
    "m_DefaultValue": {
        "x": 0.0,
        "y": 0.0,
        "z": 0.0
    },
    "m_Labels": []
}

{
    "m_SGVersion": 0,
    "m_Type": "UnityEditor.ShaderGraph.Vector1MaterialSlot",
    "m_ObjectId": "bc0ce4be826743d9aed287c6ec762b3c",
    "m_Id": 0,
    "m_DisplayName": "speed",
    "m_SlotType": 1,
    "m_Hidden": false,
    "m_ShaderOutputName": "Out",
    "m_StageCapability": 3,
    "m_Value": 0.0,
    "m_DefaultValue": 0.0,
    "m_Labels": []
}

{
    "m_SGVersion": 0,
    "m_Type": "UnityEditor.ShaderGraph.ColorRGBMaterialSlot",
    "m_ObjectId": "c6b5d33e117041aa9a189de446bea6c1",
    "m_Id": 1,
    "m_DisplayName": "From",
    "m_SlotType": 0,
    "m_Hidden": false,
    "m_ShaderOutputName": "From",
    "m_StageCapability": 3,
    "m_Value": {
        "x": 0.0,
        "y": 0.0,
        "z": 0.0
    },
    "m_DefaultValue": {
        "x": 0.0,
        "y": 0.0,
        "z": 0.0
    },
    "m_Labels": [],
    "m_ColorMode": 0,
    "m_DefaultColor": {
        "r": 0.0,
        "g": 0.0,
        "b": 0.0,
        "a": 0.0
    }
}

{
    "m_SGVersion": 0,
    "m_Type": "UnityEditor.ShaderGraph.Vector1MaterialSlot",
    "m_ObjectId": "c7ca8b9d4d174c3e870f8cb8d31ac66b",
    "m_Id": 2,
    "m_DisplayName": "CellDensity",
    "m_SlotType": 0,
    "m_Hidden": false,
    "m_ShaderOutputName": "CellDensity",
    "m_StageCapability": 3,
    "m_Value": 5.0,
    "m_DefaultValue": 5.0,
    "m_Labels": []
}

{
    "m_SGVersion": 0,
    "m_Type": "UnityEditor.ShaderGraph.MultiplyNode",
    "m_ObjectId": "c86a65fd7d66450fa5c30b1b728823f0",
    "m_Group": {
        "m_Id": ""
    },
    "m_Name": "Multiply",
    "m_DrawState": {
        "m_Expanded": true,
        "m_Position": {
            "serializedVersion": "2",
            "x": 1799.333251953125,
            "y": -31.333383560180665,
            "width": 209.3333740234375,
            "height": 304.0
        }
    },
    "m_Slots": [
        {
            "m_Id": "d41537847daf46e785e2a6d00b182d38"
        },
        {
            "m_Id": "72b47c850314475294e33dd7f2c8d357"
        },
        {
            "m_Id": "624cfeee7e2d4971994568a9629712ec"
        }
    ],
    "synonyms": [
        "multiplication",
        "times",
        "x"
    ],
    "m_Precision": 0,
    "m_PreviewExpanded": true,
    "m_DismissedVersion": 0,
    "m_PreviewMode": 0,
    "m_CustomColors": {
        "m_SerializableColors": []
    }
}

{
    "m_SGVersion": 0,
    "m_Type": "UnityEditor.ShaderGraph.DynamicValueMaterialSlot",
    "m_ObjectId": "cf42d751226244179dd7106238d71df6",
    "m_Id": 2,
    "m_DisplayName": "Out",
    "m_SlotType": 1,
    "m_Hidden": false,
    "m_ShaderOutputName": "Out",
    "m_StageCapability": 3,
    "m_Value": {
        "e00": 0.0,
        "e01": 0.0,
        "e02": 0.0,
        "e03": 0.0,
        "e10": 0.0,
        "e11": 0.0,
        "e12": 0.0,
        "e13": 0.0,
        "e20": 0.0,
        "e21": 0.0,
        "e22": 0.0,
        "e23": 0.0,
        "e30": 0.0,
        "e31": 0.0,
        "e32": 0.0,
        "e33": 0.0
    },
    "m_DefaultValue": {
        "e00": 1.0,
        "e01": 0.0,
        "e02": 0.0,
        "e03": 0.0,
        "e10": 0.0,
        "e11": 1.0,
        "e12": 0.0,
        "e13": 0.0,
        "e20": 0.0,
        "e21": 0.0,
        "e22": 1.0,
        "e23": 0.0,
        "e30": 0.0,
        "e31": 0.0,
        "e32": 0.0,
        "e33": 1.0
    }
}

{
    "m_SGVersion": 0,
    "m_Type": "UnityEditor.ShaderGraph.DynamicValueMaterialSlot",
    "m_ObjectId": "d41537847daf46e785e2a6d00b182d38",
    "m_Id": 0,
    "m_DisplayName": "A",
    "m_SlotType": 0,
    "m_Hidden": false,
    "m_ShaderOutputName": "A",
    "m_StageCapability": 3,
    "m_Value": {
        "e00": 0.0,
        "e01": 0.0,
        "e02": 0.0,
        "e03": 0.0,
        "e10": 0.0,
        "e11": 0.0,
        "e12": 0.0,
        "e13": 0.0,
        "e20": 0.0,
        "e21": 0.0,
        "e22": 0.0,
        "e23": 0.0,
        "e30": 0.0,
        "e31": 0.0,
        "e32": 0.0,
        "e33": 0.0
    },
    "m_DefaultValue": {
        "e00": 1.0,
        "e01": 0.0,
        "e02": 0.0,
        "e03": 0.0,
        "e10": 0.0,
        "e11": 1.0,
        "e12": 0.0,
        "e13": 0.0,
        "e20": 0.0,
        "e21": 0.0,
        "e22": 1.0,
        "e23": 0.0,
        "e30": 0.0,
        "e31": 0.0,
        "e32": 0.0,
        "e33": 1.0
    }
}

{
    "m_SGVersion": 0,
    "m_Type": "UnityEditor.ShaderGraph.UVMaterialSlot",
    "m_ObjectId": "d851458d9c3b4fa09b6a5a9787871913",
    "m_Id": 0,
    "m_DisplayName": "UV",
    "m_SlotType": 0,
    "m_Hidden": false,
    "m_ShaderOutputName": "UV",
    "m_StageCapability": 3,
    "m_Value": {
        "x": 0.0,
        "y": 0.0
    },
    "m_DefaultValue": {
        "x": 0.0,
        "y": 0.0
    },
    "m_Labels": [],
    "m_Channel": 0
}

{
    "m_SGVersion": 0,
    "m_Type": "UnityEditor.ShaderGraph.Vector1MaterialSlot",
    "m_ObjectId": "d948d2ec588249bab8db7a15e9ad9e73",
    "m_Id": 3,
    "m_DisplayName": "Length Scale",
    "m_SlotType": 0,
    "m_Hidden": false,
    "m_ShaderOutputName": "LengthScale",
    "m_StageCapability": 3,
    "m_Value": 4.519999980926514,
    "m_DefaultValue": 1.0,
    "m_Labels": []
}

{
    "m_SGVersion": 0,
    "m_Type": "UnityEditor.ShaderGraph.Vector1MaterialSlot",
    "m_ObjectId": "de0daf48f10b4e83b0ba7eeef5fb5ea2",
    "m_Id": 3,
    "m_DisplayName": "Out",
    "m_SlotType": 1,
    "m_Hidden": false,
    "m_ShaderOutputName": "Out",
    "m_StageCapability": 3,
    "m_Value": 0.0,
    "m_DefaultValue": 0.0,
    "m_Labels": []
}

{
    "m_SGVersion": 0,
    "m_Type": "UnityEditor.ShaderGraph.DynamicValueMaterialSlot",
    "m_ObjectId": "e1e586be234c4c07bef1c599f951116f",
    "m_Id": 1,
    "m_DisplayName": "B",
    "m_SlotType": 0,
    "m_Hidden": false,
    "m_ShaderOutputName": "B",
    "m_StageCapability": 3,
    "m_Value": {
        "e00": 2.0,
        "e01": 2.0,
        "e02": 2.0,
        "e03": 2.0,
        "e10": 2.0,
        "e11": 2.0,
        "e12": 2.0,
        "e13": 2.0,
        "e20": 2.0,
        "e21": 2.0,
        "e22": 2.0,
        "e23": 2.0,
        "e30": 2.0,
        "e31": 2.0,
        "e32": 2.0,
        "e33": 2.0
    },
    "m_DefaultValue": {
        "e00": 1.0,
        "e01": 0.0,
        "e02": 0.0,
        "e03": 0.0,
        "e10": 0.0,
        "e11": 1.0,
        "e12": 0.0,
        "e13": 0.0,
        "e20": 0.0,
        "e21": 0.0,
        "e22": 1.0,
        "e23": 0.0,
        "e30": 0.0,
        "e31": 0.0,
        "e32": 0.0,
        "e33": 1.0
    }
}

{
    "m_SGVersion": 0,
    "m_Type": "UnityEditor.ShaderGraph.Vector1MaterialSlot",
    "m_ObjectId": "ee64d174b4054babb92162291cc70a5a",
    "m_Id": 3,
    "m_DisplayName": "Range",
    "m_SlotType": 0,
    "m_Hidden": false,
    "m_ShaderOutputName": "Range",
    "m_StageCapability": 3,
    "m_Value": 0.0,
    "m_DefaultValue": 0.0,
    "m_Labels": []
}

{
    "m_SGVersion": 0,
    "m_Type": "UnityEditor.ShaderGraph.PropertyNode",
    "m_ObjectId": "ef4f96280b3a4f6fb23b99c815584b16",
    "m_Group": {
        "m_Id": ""
    },
    "m_Name": "Property",
    "m_DrawState": {
        "m_Expanded": true,
        "m_Position": {
            "serializedVersion": "2",
            "x": -1460.666748046875,
            "y": 128.66671752929688,
            "width": 132.0,
            "height": 35.99998474121094
        }
    },
    "m_Slots": [
        {
            "m_Id": "8f143ce461494e42b9528cef70dac785"
        }
    ],
    "synonyms": [],
    "m_Precision": 0,
    "m_PreviewExpanded": true,
    "m_DismissedVersion": 0,
    "m_PreviewMode": 0,
    "m_CustomColors": {
        "m_SerializableColors": []
    },
    "m_Property": {
        "m_Id": "55b2805dc51f462da92cad6d54dffc1c"
    }
}

{
    "m_SGVersion": 0,
    "m_Type": "UnityEditor.ShaderGraph.RectangleNode",
    "m_ObjectId": "f0bed06df9dd4eb8af42bafce1eb45ad",
    "m_Group": {
        "m_Id": ""
    },
    "m_Name": "Rectangle",
    "m_DrawState": {
        "m_Expanded": true,
        "m_Position": {
            "serializedVersion": "2",
            "x": 767.9999389648438,
            "y": 238.33349609375,
            "width": 209.333251953125,
            "height": 363.9998779296875
        }
    },
    "m_Slots": [
        {
            "m_Id": "91113d4e2ab345dfb7c8bd94618cd2e5"
        },
        {
            "m_Id": "a21de655e23543a0b0395b3726ceb042"
        },
        {
            "m_Id": "f15c70d76900459cadba4eb62af6ba7a"
        },
        {
            "m_Id": "77d6c48ac7344a119fa7217205d4d344"
        }
    ],
    "synonyms": [
        "square"
    ],
    "m_Precision": 0,
    "m_PreviewExpanded": true,
    "m_DismissedVersion": 0,
    "m_PreviewMode": 0,
    "m_CustomColors": {
        "m_SerializableColors": []
    },
    "m_ClampType": 0
}

{
    "m_SGVersion": 0,
    "m_Type": "UnityEditor.ShaderGraph.Vector1MaterialSlot",
    "m_ObjectId": "f15c70d76900459cadba4eb62af6ba7a",
    "m_Id": 2,
    "m_DisplayName": "Height",
    "m_SlotType": 0,
    "m_Hidden": false,
    "m_ShaderOutputName": "Height",
    "m_StageCapability": 3,
    "m_Value": 0.5,
    "m_DefaultValue": 0.5,
    "m_Labels": []
}

{
    "m_SGVersion": 0,
    "m_Type": "UnityEditor.ShaderGraph.Vector1MaterialSlot",
    "m_ObjectId": "f86511a1dff84880ba40fe5c3f4bd9ef",
    "m_Id": 2,
    "m_DisplayName": "Rotation",
    "m_SlotType": 0,
    "m_Hidden": false,
    "m_ShaderOutputName": "Rotation",
    "m_StageCapability": 3,
    "m_Value": 0.0,
    "m_DefaultValue": 0.0,
    "m_Labels": []
}

{
    "m_SGVersion": 0,
    "m_Type": "UnityEditor.ShaderGraph.ReplaceColorNode",
    "m_ObjectId": "fdcfda6f49f94effb1a8509d93f408e9",
    "m_Group": {
        "m_Id": ""
    },
    "m_Name": "Replace Color",
    "m_DrawState": {
        "m_Expanded": true,
        "m_Position": {
            "serializedVersion": "2",
            "x": 2174.0,
            "y": -31.333383560180665,
            "width": 209.3330078125,
            "height": 375.9998779296875
        }
    },
    "m_Slots": [
        {
            "m_Id": "5068fa0ea71b49adb6e35d57a9eeb0e5"
        },
        {
            "m_Id": "c6b5d33e117041aa9a189de446bea6c1"
        },
        {
            "m_Id": "b760a9e7683640c09e8acb3ad76c5edc"
        },
        {
            "m_Id": "ee64d174b4054babb92162291cc70a5a"
        },
        {
            "m_Id": "43ba8514e32f4ca3ab6f36c26d4ef749"
        },
        {
            "m_Id": "a07dd990c1404ca79e36f6831f08f1b9"
        }
    ],
    "synonyms": [],
    "m_Precision": 0,
    "m_PreviewExpanded": true,
    "m_DismissedVersion": 0,
    "m_PreviewMode": 0,
    "m_CustomColors": {
        "m_SerializableColors": []
    }
}

{
    "m_SGVersion": 0,
    "m_Type": "UnityEditor.ShaderGraph.Vector2MaterialSlot",
    "m_ObjectId": "fe539853ee2e462eaee6a5421fc83c2f",
    "m_Id": 1,
    "m_DisplayName": "Center",
    "m_SlotType": 0,
    "m_Hidden": false,
    "m_ShaderOutputName": "Center",
    "m_StageCapability": 3,
    "m_Value": {
        "x": 0.5,
        "y": 0.5
    },
    "m_DefaultValue": {
        "x": 0.0,
        "y": 0.0
    },
    "m_Labels": []
}

