%YAML 1.1
%TAG !u! tag:unity3d.com,2011:
--- !u!1001 &839646367194631300
PrefabInstance:
  m_ObjectHideFlags: 0
  serializedVersion: 2
  m_Modification:
    serializedVersion: 3
    m_TransformParent: {fileID: 0}
    m_Modifications:
    - target: {fileID: 1874814603719935250, guid: 99c9c9c12cd72ca45910ce2d90115163, type: 3}
      propertyPath: m_Name
      value: Player Bullet 1
      objectReference: {fileID: 0}
    - target: {fileID: 1874814603719935260, guid: 99c9c9c12cd72ca45910ce2d90115163, type: 3}
      propertyPath: m_RootOrder
      value: 0
      objectReference: {fileID: 0}
    - target: {fileID: 1874814603719935260, guid: 99c9c9c12cd72ca45910ce2d90115163, type: 3}
      propertyPath: m_LocalPosition.x
      value: 0
      objectReference: {fileID: 0}
    - target: {fileID: 1874814603719935260, guid: 99c9c9c12cd72ca45910ce2d90115163, type: 3}
      propertyPath: m_LocalPosition.y
      value: 0
      objectReference: {fileID: 0}
    - target: {fileID: 1874814603719935260, guid: 99c9c9c12cd72ca45910ce2d90115163, type: 3}
      propertyPath: m_LocalPosition.z
      value: 0
      objectReference: {fileID: 0}
    - target: {fileID: 1874814603719935260, guid: 99c9c9c12cd72ca45910ce2d90115163, type: 3}
      propertyPath: m_LocalRotation.w
      value: 1
      objectReference: {fileID: 0}
    - target: {fileID: 1874814603719935260, guid: 99c9c9c12cd72ca45910ce2d90115163, type: 3}
      propertyPath: m_LocalRotation.x
      value: 0
      objectReference: {fileID: 0}
    - target: {fileID: 1874814603719935260, guid: 99c9c9c12cd72ca45910ce2d90115163, type: 3}
      propertyPath: m_LocalRotation.y
      value: 0
      objectReference: {fileID: 0}
    - target: {fileID: 1874814603719935260, guid: 99c9c9c12cd72ca45910ce2d90115163, type: 3}
      propertyPath: m_LocalRotation.z
      value: 0
      objectReference: {fileID: 0}
    - target: {fileID: 1874814603719935260, guid: 99c9c9c12cd72ca45910ce2d90115163, type: 3}
      propertyPath: m_LocalEulerAnglesHint.x
      value: 0
      objectReference: {fileID: 0}
    - target: {fileID: 1874814603719935260, guid: 99c9c9c12cd72ca45910ce2d90115163, type: 3}
      propertyPath: m_LocalEulerAnglesHint.y
      value: 0
      objectReference: {fileID: 0}
    - target: {fileID: 1874814603719935260, guid: 99c9c9c12cd72ca45910ce2d90115163, type: 3}
      propertyPath: m_LocalEulerAnglesHint.z
      value: 0
      objectReference: {fileID: 0}
    - target: {fileID: 1874814603719935261, guid: 99c9c9c12cd72ca45910ce2d90115163, type: 3}
      propertyPath: range
      value: 80
      objectReference: {fileID: 0}
    - target: {fileID: 1874814603719935261, guid: 99c9c9c12cd72ca45910ce2d90115163, type: 3}
      propertyPath: damage
      value: 1
      objectReference: {fileID: 0}
    - target: {fileID: 1874814603719935261, guid: 99c9c9c12cd72ca45910ce2d90115163, type: 3}
      propertyPath: moveSpeed
      value: 10
      objectReference: {fileID: 0}
    - target: {fileID: 1874814603719935261, guid: 99c9c9c12cd72ca45910ce2d90115163, type: 3}
      propertyPath: prefabIndex
      value: 8
      objectReference: {fileID: 0}
    - target: {fileID: 1874814603719935261, guid: 99c9c9c12cd72ca45910ce2d90115163, type: 3}
      propertyPath: autoDespawnMode
      value: 1
      objectReference: {fileID: 0}
    m_RemovedComponents: []
    m_RemovedGameObjects: []
    m_AddedGameObjects: []
    m_AddedComponents: []
  m_SourcePrefab: {fileID: 100100000, guid: 99c9c9c12cd72ca45910ce2d90115163, type: 3}
