%YAML 1.1
%TAG !u! tag:unity3d.com,2011:
--- !u!114 &11400000
MonoBehaviour:
  m_ObjectHideFlags: 0
  m_CorrespondingSourceObject: {fileID: 0}
  m_PrefabInstance: {fileID: 0}
  m_PrefabAsset: {fileID: 0}
  m_GameObject: {fileID: 0}
  m_Enabled: 1
  m_EditorHideFlags: 0
  m_Script: {fileID: 11500000, guid: ebc8de8875fc19b2c893aeac1d5400b3, type: 3}
  m_Name: Repeat Bullet Patterns 1
  m_EditorClassIdentifier: 
  canSpawn: 1
  setSpawnerAimingOnShoot: 0
  repeatCount: 4
  bulletPatterns:
  - {fileID: 11400000, guid: 1c5a1c558f4dbee4a9dd07673d8df21a, type: 2}
  - {fileID: 11400000, guid: 35deff911cedd214fb2c65d19b787cf4, type: 2}
  - {fileID: 11400000, guid: ab8aac079c01dad45b387e4b9cad961e, type: 2}
  - {fileID: 11400000, guid: 9617b5b2959bd05408c4fa63a1cb7a68, type: 2}
  - {fileID: 11400000, guid: 4afd5c460a200b343b24430f8d8d743a, type: 2}
  - {fileID: 11400000, guid: 3e36391afd550ab4fab46a973e282eec, type: 2}
