%YAML 1.1
%TAG !u! tag:unity3d.com,2011:
--- !u!1001 &199957164680523765
PrefabInstance:
  m_ObjectHideFlags: 0
  serializedVersion: 2
  m_Modification:
    serializedVersion: 3
    m_TransformParent: {fileID: 0}
    m_Modifications:
    - target: {fileID: 3989944954665599108, guid: 5d40d26ad58bf7c4f84d3edcd3b66df8, type: 3}
      propertyPath: m_RootOrder
      value: 0
      objectReference: {fileID: 0}
    - target: {fileID: 3989944954665599108, guid: 5d40d26ad58bf7c4f84d3edcd3b66df8, type: 3}
      propertyPath: m_LocalPosition.x
      value: 0
      objectReference: {fileID: 0}
    - target: {fileID: 3989944954665599108, guid: 5d40d26ad58bf7c4f84d3edcd3b66df8, type: 3}
      propertyPath: m_LocalPosition.y
      value: 0
      objectReference: {fileID: 0}
    - target: {fileID: 3989944954665599108, guid: 5d40d26ad58bf7c4f84d3edcd3b66df8, type: 3}
      propertyPath: m_LocalPosition.z
      value: 0
      objectReference: {fileID: 0}
    - target: {fileID: 3989944954665599108, guid: 5d40d26ad58bf7c4f84d3edcd3b66df8, type: 3}
      propertyPath: m_LocalRotation.w
      value: 1
      objectReference: {fileID: 0}
    - target: {fileID: 3989944954665599108, guid: 5d40d26ad58bf7c4f84d3edcd3b66df8, type: 3}
      propertyPath: m_LocalRotation.x
      value: 0
      objectReference: {fileID: 0}
    - target: {fileID: 3989944954665599108, guid: 5d40d26ad58bf7c4f84d3edcd3b66df8, type: 3}
      propertyPath: m_LocalRotation.y
      value: 0
      objectReference: {fileID: 0}
    - target: {fileID: 3989944954665599108, guid: 5d40d26ad58bf7c4f84d3edcd3b66df8, type: 3}
      propertyPath: m_LocalRotation.z
      value: 0
      objectReference: {fileID: 0}
    - target: {fileID: 3989944954665599108, guid: 5d40d26ad58bf7c4f84d3edcd3b66df8, type: 3}
      propertyPath: m_LocalEulerAnglesHint.x
      value: 0
      objectReference: {fileID: 0}
    - target: {fileID: 3989944954665599108, guid: 5d40d26ad58bf7c4f84d3edcd3b66df8, type: 3}
      propertyPath: m_LocalEulerAnglesHint.y
      value: 0
      objectReference: {fileID: 0}
    - target: {fileID: 3989944954665599108, guid: 5d40d26ad58bf7c4f84d3edcd3b66df8, type: 3}
      propertyPath: m_LocalEulerAnglesHint.z
      value: 0
      objectReference: {fileID: 0}
    - target: {fileID: 3989944954665599110, guid: 5d40d26ad58bf7c4f84d3edcd3b66df8, type: 3}
      propertyPath: m_Name
      value: Player Weapon
      objectReference: {fileID: 0}
    - target: {fileID: 7168302858374683168, guid: 5d40d26ad58bf7c4f84d3edcd3b66df8, type: 3}
      propertyPath: cost
      value: 200
      objectReference: {fileID: 0}
    - target: {fileID: 7168302858374683168, guid: 5d40d26ad58bf7c4f84d3edcd3b66df8, type: 3}
      propertyPath: animationEntry.length
      value: 0.5
      objectReference: {fileID: 0}
    - target: {fileID: 7168302858374683168, guid: 5d40d26ad58bf7c4f84d3edcd3b66df8, type: 3}
      propertyPath: bulletPatternEntry.name
      value: Shoot Where Facing
      objectReference: {fileID: 0}
    - target: {fileID: 7168302858374683168, guid: 5d40d26ad58bf7c4f84d3edcd3b66df8, type: 3}
      propertyPath: bulletPatternEntry.spawner
      value: 
      objectReference: {fileID: 3862190932244246385}
    - target: {fileID: 7168302858374683168, guid: 5d40d26ad58bf7c4f84d3edcd3b66df8, type: 3}
      propertyPath: bulletPatternEntry.bulletPrefab
      value: 
      objectReference: {fileID: 1271044370810030489, guid: 66f576546ea7dc4408e0d6566bd44ba7, type: 3}
    - target: {fileID: 7168302858374683168, guid: 5d40d26ad58bf7c4f84d3edcd3b66df8, type: 3}
      propertyPath: animationEntry.animatorStateName
      value: Shoot
      objectReference: {fileID: 0}
    - target: {fileID: 7168302858374683168, guid: 5d40d26ad58bf7c4f84d3edcd3b66df8, type: 3}
      propertyPath: bulletPatternEntry.bulletPattern
      value: 
      objectReference: {fileID: 11400000, guid: 3c9a8d9f18cefcc4ca340071bd4ed827, type: 2}
    m_RemovedComponents: []
    m_RemovedGameObjects: []
    m_AddedGameObjects: []
    m_AddedComponents: []
  m_SourcePrefab: {fileID: 100100000, guid: 5d40d26ad58bf7c4f84d3edcd3b66df8, type: 3}
--- !u!4 &3862190932244246385 stripped
Transform:
  m_CorrespondingSourceObject: {fileID: 3989944954665599108, guid: 5d40d26ad58bf7c4f84d3edcd3b66df8, type: 3}
  m_PrefabInstance: {fileID: 199957164680523765}
  m_PrefabAsset: {fileID: 0}
