%YAML 1.1
%TAG !u! tag:unity3d.com,2011:
--- !u!114 &11400000
MonoBehaviour:
  m_ObjectHideFlags: 0
  m_CorrespondingSourceObject: {fileID: 0}
  m_PrefabInstance: {fileID: 0}
  m_PrefabAsset: {fileID: 0}
  m_GameObject: {fileID: 0}
  m_Enabled: 1
  m_EditorHideFlags: 0
  m_Script: {fileID: 11500000, guid: eeeb25b0903dbdcdcb82ef8e7ba9334e, type: 3}
  m_Name: Follow Closest Enemy
  m_EditorClassIdentifier: 
  whatIsEnemy:
    serializedVersion: 2
    m_Bits: 64
  rotateRate: 80
  followRange: Infinity
