%YAML 1.1
%TAG !u! tag:unity3d.com,2011:
--- !u!1 &2845027698834396442
GameObject:
  m_ObjectHideFlags: 0
  m_CorrespondingSourceObject: {fileID: 0}
  m_PrefabInstance: {fileID: 0}
  m_PrefabAsset: {fileID: 0}
  serializedVersion: 6
  m_Component:
  - component: {fileID: 2845027698834396439}
  - component: {fileID: 2845027698834396440}
  - component: {fileID: 2845027698834396438}
  - component: {fileID: 8985403750530336051}
  m_Layer: 9
  m_Name: Wall
  m_TagString: Untagged
  m_Icon: {fileID: 0}
  m_NavMeshLayer: 0
  m_StaticEditorFlags: 0
  m_IsActive: 1
--- !u!4 &2845027698834396439
Transform:
  m_ObjectHideFlags: 0
  m_CorrespondingSourceObject: {fileID: 0}
  m_PrefabInstance: {fileID: 0}
  m_PrefabAsset: {fileID: 0}
  m_GameObject: {fileID: 2845027698834396442}
  m_LocalRotation: {x: 0, y: 0, z: 0, w: 1}
  m_LocalPosition: {x: 0, y: 0, z: 0}
  m_LocalScale: {x: 1, y: 1, z: 1}
  m_ConstrainProportionsScale: 0
  m_Children: []
  m_Father: {fileID: 0}
  m_RootOrder: 0
  m_LocalEulerAnglesHint: {x: 0, y: 0, z: 0}
--- !u!1971053207 &2845027698834396440
SpriteShapeRenderer:
  m_ObjectHideFlags: 0
  m_CorrespondingSourceObject: {fileID: 0}
  m_PrefabInstance: {fileID: 0}
  m_PrefabAsset: {fileID: 0}
  m_GameObject: {fileID: 2845027698834396442}
  m_Enabled: 1
  m_CastShadows: 1
  m_ReceiveShadows: 1
  m_DynamicOccludee: 0
  m_StaticShadowCaster: 0
  m_MotionVectors: 1
  m_LightProbeUsage: 1
  m_ReflectionProbeUsage: 1
  m_RayTracingMode: 0
  m_RayTraceProcedural: 0
  m_RenderingLayerMask: 1
  m_RendererPriority: 0
  m_Materials:
  - {fileID: 2100000, guid: 790ee880cc8ea684bbfee0e08d89b076, type: 2}
  - {fileID: 2100000, guid: 33d2829929994a849b6b6716281c4c20, type: 2}
  m_StaticBatchInfo:
    firstSubMesh: 0
    subMeshCount: 0
  m_StaticBatchRoot: {fileID: 0}
  m_ProbeAnchor: {fileID: 0}
  m_LightProbeVolumeOverride: {fileID: 0}
  m_ScaleInLightmap: 1
  m_ReceiveGI: 1
  m_PreserveUVs: 0
  m_IgnoreNormalsForChartDetection: 0
  m_ImportantGI: 0
  m_StitchLightmapSeams: 1
  m_SelectedEditorRenderState: 0
  m_MinimumChartSize: 4
  m_AutoUVMaxDistance: 0.5
  m_AutoUVMaxAngle: 89
  m_LightmapParameters: {fileID: 0}
  m_SortingLayerID: 0
  m_SortingLayer: 0
  m_SortingOrder: 0
  m_Color: {r: 1, g: 1, b: 1, a: 1}
  m_MaskInteraction: 0
  m_ShapeTexture: {fileID: 2800000, guid: b281b91a70a624a0da1c43adc1c30c7b, type: 3}
  m_Sprites:
  - {fileID: 21300000, guid: 608e61deb05c54660bebf5a4dd2ee02d, type: 3}
  - {fileID: 21300000, guid: 608e61deb05c54660bebf5a4dd2ee02d, type: 3}
  - {fileID: 21300000, guid: 608e61deb05c54660bebf5a4dd2ee02d, type: 3}
  - {fileID: 21300000, guid: 608e61deb05c54660bebf5a4dd2ee02d, type: 3}
  - {fileID: 21300000, guid: 608e61deb05c54660bebf5a4dd2ee02d, type: 3}
  - {fileID: 21300000, guid: 608e61deb05c54660bebf5a4dd2ee02d, type: 3}
  - {fileID: 21300000, guid: 608e61deb05c54660bebf5a4dd2ee02d, type: 3}
  - {fileID: 21300000, guid: 608e61deb05c54660bebf5a4dd2ee02d, type: 3}
  m_LocalAABB:
    m_Center: {x: 0, y: 0, z: 0}
    m_Extent: {x: 1.0000001, y: 1.0000001, z: 0}
  m_SpriteSortPoint: 0
--- !u!60 &2845027698834396438
PolygonCollider2D:
  m_ObjectHideFlags: 0
  m_CorrespondingSourceObject: {fileID: 0}
  m_PrefabInstance: {fileID: 0}
  m_PrefabAsset: {fileID: 0}
  m_GameObject: {fileID: 2845027698834396442}
  m_Enabled: 1
  m_Density: 1
  m_Material: {fileID: 0}
  m_IncludeLayers:
    serializedVersion: 2
    m_Bits: 0
  m_ExcludeLayers:
    serializedVersion: 2
    m_Bits: 0
  m_LayerOverridePriority: 0
  m_ForceSendLayers:
    serializedVersion: 2
    m_Bits: 4294967295
  m_ForceReceiveLayers:
    serializedVersion: 2
    m_Bits: 4294967295
  m_ContactCaptureLayers:
    serializedVersion: 2
    m_Bits: 4294967295
  m_CallbackLayers:
    serializedVersion: 2
    m_Bits: 4294967295
  m_IsTrigger: 0
  m_UsedByEffector: 0
  m_UsedByComposite: 0
  m_Offset: {x: 0, y: 0}
  m_SpriteTilingProperty:
    border: {x: 0, y: 0, z: 0, w: 0}
    pivot: {x: 0, y: 0}
    oldSize: {x: 0, y: 0}
    newSize: {x: 0, y: 0}
    adaptiveTilingThreshold: 0
    drawMode: 0
    adaptiveTiling: 0
  m_AutoTiling: 0
  m_Points:
    m_Paths:
    - - {x: -0.99950016, y: -0.99950004}
      - {x: -0.99950004, y: 0.99950016}
      - {x: 0.99950016, y: 0.99950004}
      - {x: 0.99950004, y: -0.99950016}
      - {x: -0.99950016, y: -0.99950004}
  m_UseDelaunayMesh: 0
--- !u!114 &8985403750530336051
MonoBehaviour:
  m_ObjectHideFlags: 0
  m_CorrespondingSourceObject: {fileID: 0}
  m_PrefabInstance: {fileID: 0}
  m_PrefabAsset: {fileID: 0}
  m_GameObject: {fileID: 2845027698834396442}
  m_Enabled: 1
  m_EditorHideFlags: 0
  m_Script: {fileID: 11500000, guid: c30f753aa4553cc499c233f9924d80dd, type: 3}
  m_Name: 
  m_EditorClassIdentifier: 
  m_Spline:
    m_IsOpenEnded: 0
    m_ControlPoints:
    - position: {x: -1, y: -1, z: 0}
      leftTangent: {x: 0, y: 0, z: 0}
      rightTangent: {x: 0, y: 0, z: 0}
      mode: 0
      height: 1
      spriteIndex: 0
      corner: 0
      m_CornerMode: 1
    - position: {x: -1, y: 1, z: 0}
      leftTangent: {x: 0, y: 0, z: 0}
      rightTangent: {x: 0, y: 0, z: 0}
      mode: 0
      height: 1
      spriteIndex: 0
      corner: 0
      m_CornerMode: 1
    - position: {x: 1, y: 1, z: 0}
      leftTangent: {x: 0, y: 0, z: 0}
      rightTangent: {x: 0, y: 0, z: 0}
      mode: 0
      height: 1
      spriteIndex: 0
      corner: 0
      m_CornerMode: 1
    - position: {x: 1, y: -1, z: 0}
      leftTangent: {x: 0, y: 0, z: 0}
      rightTangent: {x: 0, y: 0, z: 0}
      mode: 0
      height: 1
      spriteIndex: 0
      corner: 0
      m_CornerMode: 1
  m_SpriteShape: {fileID: 11400000, guid: deb844108411be645a41d9eb50cd5e10, type: 2}
  m_FillPixelPerUnit: 100
  m_StretchTiling: 1
  m_SplineDetail: 16
  m_AdaptiveUV: 1
  m_StretchUV: 0
  m_WorldSpaceUV: 0
  m_CornerAngleThreshold: 30
  m_ColliderDetail: 16
  m_ColliderOffset: 0
  m_UpdateCollider: 1
  m_EnableTangents: 0
  m_GeometryCached: 0
  m_UTess2D: 1
  m_Creator: {fileID: 0}
  m_Modifiers: []
  m_ColliderSegment:
  - {x: -0.99950016, y: -0.99950004}
  - {x: -0.99950004, y: 0.99950016}
  - {x: 0.99950016, y: 0.99950004}
  - {x: 0.99950004, y: -0.99950016}
  - {x: -0.99950016, y: -0.99950004}
  pivotOffset: {x: 0, y: 0}
  recenter: 0
  trs: {fileID: 2845027698834396439}
  snapInterval: 1
